<?xml version="1.0" encoding="utf-8" standalone="no"?>
<!DOCTYPE svg PUBLIC "-//W3C//DTD SVG 1.1//EN"
  "http://www.w3.org/Graphics/SVG/1.1/DTD/svg11.dtd">
<!-- Created with matplotlib (https://matplotlib.org/) -->
<svg height="288pt" version="1.1" viewBox="0 0 1080 288" width="1080pt" xmlns="http://www.w3.org/2000/svg" xmlns:xlink="http://www.w3.org/1999/xlink">
 <metadata>
  <rdf:RDF xmlns:cc="http://creativecommons.org/ns#" xmlns:dc="http://purl.org/dc/elements/1.1/" xmlns:rdf="http://www.w3.org/1999/02/22-rdf-syntax-ns#">
   <cc:Work>
    <dc:type rdf:resource="http://purl.org/dc/dcmitype/StillImage"/>
    <dc:date>2022-03-10T13:53:45.372390</dc:date>
    <dc:format>image/svg+xml</dc:format>
    <dc:creator>
     <cc:Agent>
      <dc:title>Matplotlib v3.3.3, https://matplotlib.org/</dc:title>
     </cc:Agent>
    </dc:creator>
   </cc:Work>
  </rdf:RDF>
 </metadata>
 <defs>
  <style type="text/css">*{stroke-linecap:butt;stroke-linejoin:round;}</style>
 </defs>
 <g id="figure_1">
  <g id="patch_1">
   <path d="M 0 288 
L 1080 288 
L 1080 0 
L 0 0 
z
" style="fill:none;"/>
  </g>
  <g id="axes_1">
   <g id="patch_2">
    <path d="M 135 252 
L 381.176471 252 
L 381.176471 34.56 
L 135 34.56 
z
" style="fill:#ffffff;"/>
   </g>
   <g id="matplotlib.axis_1">
    <g id="xtick_1">
     <g id="line2d_1">
      <defs>
       <path d="M 0 0 
L 0 3.5 
" id="mf16d4f780f" style="stroke:#000000;stroke-width:0.8;"/>
      </defs>
      <g>
       <use style="stroke:#000000;stroke-width:0.8;" x="145.065233" xlink:href="#mf16d4f780f" y="252"/>
      </g>
     </g>
     <g id="text_1">
      <!-- 0 -->
      <g transform="translate(141.883983 266.598437)scale(0.1 -0.1)">
       <defs>
        <path d="M 31.78125 66.40625 
Q 24.171875 66.40625 20.328125 58.90625 
Q 16.5 51.421875 16.5 36.375 
Q 16.5 21.390625 20.328125 13.890625 
Q 24.171875 6.390625 31.78125 6.390625 
Q 39.453125 6.390625 43.28125 13.890625 
Q 47.125 21.390625 47.125 36.375 
Q 47.125 51.421875 43.28125 58.90625 
Q 39.453125 66.40625 31.78125 66.40625 
z
M 31.78125 74.21875 
Q 44.046875 74.21875 50.515625 64.515625 
Q 56.984375 54.828125 56.984375 36.375 
Q 56.984375 17.96875 50.515625 8.265625 
Q 44.046875 -1.421875 31.78125 -1.421875 
Q 19.53125 -1.421875 13.0625 8.265625 
Q 6.59375 17.96875 6.59375 36.375 
Q 6.59375 54.828125 13.0625 64.515625 
Q 19.53125 74.21875 31.78125 74.21875 
z
" id="DejaVuSans-48"/>
       </defs>
       <use xlink:href="#DejaVuSans-48"/>
      </g>
     </g>
    </g>
    <g id="xtick_2">
     <g id="line2d_2">
      <g>
       <use style="stroke:#000000;stroke-width:0.8;" x="201.295582" xlink:href="#mf16d4f780f" y="252"/>
      </g>
     </g>
     <g id="text_2">
      <!-- 50 -->
      <g transform="translate(194.933082 266.598437)scale(0.1 -0.1)">
       <defs>
        <path d="M 10.796875 72.90625 
L 49.515625 72.90625 
L 49.515625 64.59375 
L 19.828125 64.59375 
L 19.828125 46.734375 
Q 21.96875 47.46875 24.109375 47.828125 
Q 26.265625 48.1875 28.421875 48.1875 
Q 40.625 48.1875 47.75 41.5 
Q 54.890625 34.8125 54.890625 23.390625 
Q 54.890625 11.625 47.5625 5.09375 
Q 40.234375 -1.421875 26.90625 -1.421875 
Q 22.3125 -1.421875 17.546875 -0.640625 
Q 12.796875 0.140625 7.71875 1.703125 
L 7.71875 11.625 
Q 12.109375 9.234375 16.796875 8.0625 
Q 21.484375 6.890625 26.703125 6.890625 
Q 35.15625 6.890625 40.078125 11.328125 
Q 45.015625 15.765625 45.015625 23.390625 
Q 45.015625 31 40.078125 35.4375 
Q 35.15625 39.890625 26.703125 39.890625 
Q 22.75 39.890625 18.8125 39.015625 
Q 14.890625 38.140625 10.796875 36.28125 
z
" id="DejaVuSans-53"/>
       </defs>
       <use xlink:href="#DejaVuSans-53"/>
       <use x="63.623047" xlink:href="#DejaVuSans-48"/>
      </g>
     </g>
    </g>
    <g id="xtick_3">
     <g id="line2d_3">
      <g>
       <use style="stroke:#000000;stroke-width:0.8;" x="257.525932" xlink:href="#mf16d4f780f" y="252"/>
      </g>
     </g>
     <g id="text_3">
      <!-- 100 -->
      <g transform="translate(247.982182 266.598437)scale(0.1 -0.1)">
       <defs>
        <path d="M 12.40625 8.296875 
L 28.515625 8.296875 
L 28.515625 63.921875 
L 10.984375 60.40625 
L 10.984375 69.390625 
L 28.421875 72.90625 
L 38.28125 72.90625 
L 38.28125 8.296875 
L 54.390625 8.296875 
L 54.390625 0 
L 12.40625 0 
z
" id="DejaVuSans-49"/>
       </defs>
       <use xlink:href="#DejaVuSans-49"/>
       <use x="63.623047" xlink:href="#DejaVuSans-48"/>
       <use x="127.246094" xlink:href="#DejaVuSans-48"/>
      </g>
     </g>
    </g>
    <g id="xtick_4">
     <g id="line2d_4">
      <g>
       <use style="stroke:#000000;stroke-width:0.8;" x="313.756281" xlink:href="#mf16d4f780f" y="252"/>
      </g>
     </g>
     <g id="text_4">
      <!-- 150 -->
      <g transform="translate(304.212531 266.598437)scale(0.1 -0.1)">
       <use xlink:href="#DejaVuSans-49"/>
       <use x="63.623047" xlink:href="#DejaVuSans-53"/>
       <use x="127.246094" xlink:href="#DejaVuSans-48"/>
      </g>
     </g>
    </g>
    <g id="xtick_5">
     <g id="line2d_5">
      <g>
       <use style="stroke:#000000;stroke-width:0.8;" x="369.986631" xlink:href="#mf16d4f780f" y="252"/>
      </g>
     </g>
     <g id="text_5">
      <!-- 200 -->
      <g transform="translate(360.442881 266.598437)scale(0.1 -0.1)">
       <defs>
        <path d="M 19.1875 8.296875 
L 53.609375 8.296875 
L 53.609375 0 
L 7.328125 0 
L 7.328125 8.296875 
Q 12.9375 14.109375 22.625 23.890625 
Q 32.328125 33.6875 34.8125 36.53125 
Q 39.546875 41.84375 41.421875 45.53125 
Q 43.3125 49.21875 43.3125 52.78125 
Q 43.3125 58.59375 39.234375 62.25 
Q 35.15625 65.921875 28.609375 65.921875 
Q 23.96875 65.921875 18.8125 64.3125 
Q 13.671875 62.703125 7.8125 59.421875 
L 7.8125 69.390625 
Q 13.765625 71.78125 18.9375 73 
Q 24.125 74.21875 28.421875 74.21875 
Q 39.75 74.21875 46.484375 68.546875 
Q 53.21875 62.890625 53.21875 53.421875 
Q 53.21875 48.921875 51.53125 44.890625 
Q 49.859375 40.875 45.40625 35.40625 
Q 44.1875 33.984375 37.640625 27.21875 
Q 31.109375 20.453125 19.1875 8.296875 
z
" id="DejaVuSans-50"/>
       </defs>
       <use xlink:href="#DejaVuSans-50"/>
       <use x="63.623047" xlink:href="#DejaVuSans-48"/>
       <use x="127.246094" xlink:href="#DejaVuSans-48"/>
      </g>
     </g>
    </g>
    <g id="text_6">
     <!-- Epochs -->
     <g transform="translate(240.17261 280.276563)scale(0.1 -0.1)">
      <defs>
       <path d="M 9.8125 72.90625 
L 55.90625 72.90625 
L 55.90625 64.59375 
L 19.671875 64.59375 
L 19.671875 43.015625 
L 54.390625 43.015625 
L 54.390625 34.71875 
L 19.671875 34.71875 
L 19.671875 8.296875 
L 56.78125 8.296875 
L 56.78125 0 
L 9.8125 0 
z
" id="DejaVuSans-69"/>
       <path d="M 18.109375 8.203125 
L 18.109375 -20.796875 
L 9.078125 -20.796875 
L 9.078125 54.6875 
L 18.109375 54.6875 
L 18.109375 46.390625 
Q 20.953125 51.265625 25.265625 53.625 
Q 29.59375 56 35.59375 56 
Q 45.5625 56 51.78125 48.09375 
Q 58.015625 40.1875 58.015625 27.296875 
Q 58.015625 14.40625 51.78125 6.484375 
Q 45.5625 -1.421875 35.59375 -1.421875 
Q 29.59375 -1.421875 25.265625 0.953125 
Q 20.953125 3.328125 18.109375 8.203125 
z
M 48.6875 27.296875 
Q 48.6875 37.203125 44.609375 42.84375 
Q 40.53125 48.484375 33.40625 48.484375 
Q 26.265625 48.484375 22.1875 42.84375 
Q 18.109375 37.203125 18.109375 27.296875 
Q 18.109375 17.390625 22.1875 11.75 
Q 26.265625 6.109375 33.40625 6.109375 
Q 40.53125 6.109375 44.609375 11.75 
Q 48.6875 17.390625 48.6875 27.296875 
z
" id="DejaVuSans-112"/>
       <path d="M 30.609375 48.390625 
Q 23.390625 48.390625 19.1875 42.75 
Q 14.984375 37.109375 14.984375 27.296875 
Q 14.984375 17.484375 19.15625 11.84375 
Q 23.34375 6.203125 30.609375 6.203125 
Q 37.796875 6.203125 41.984375 11.859375 
Q 46.1875 17.53125 46.1875 27.296875 
Q 46.1875 37.015625 41.984375 42.703125 
Q 37.796875 48.390625 30.609375 48.390625 
z
M 30.609375 56 
Q 42.328125 56 49.015625 48.375 
Q 55.71875 40.765625 55.71875 27.296875 
Q 55.71875 13.875 49.015625 6.21875 
Q 42.328125 -1.421875 30.609375 -1.421875 
Q 18.84375 -1.421875 12.171875 6.21875 
Q 5.515625 13.875 5.515625 27.296875 
Q 5.515625 40.765625 12.171875 48.375 
Q 18.84375 56 30.609375 56 
z
" id="DejaVuSans-111"/>
       <path d="M 48.78125 52.59375 
L 48.78125 44.1875 
Q 44.96875 46.296875 41.140625 47.34375 
Q 37.3125 48.390625 33.40625 48.390625 
Q 24.65625 48.390625 19.8125 42.84375 
Q 14.984375 37.3125 14.984375 27.296875 
Q 14.984375 17.28125 19.8125 11.734375 
Q 24.65625 6.203125 33.40625 6.203125 
Q 37.3125 6.203125 41.140625 7.25 
Q 44.96875 8.296875 48.78125 10.40625 
L 48.78125 2.09375 
Q 45.015625 0.34375 40.984375 -0.53125 
Q 36.96875 -1.421875 32.421875 -1.421875 
Q 20.0625 -1.421875 12.78125 6.34375 
Q 5.515625 14.109375 5.515625 27.296875 
Q 5.515625 40.671875 12.859375 48.328125 
Q 20.21875 56 33.015625 56 
Q 37.15625 56 41.109375 55.140625 
Q 45.0625 54.296875 48.78125 52.59375 
z
" id="DejaVuSans-99"/>
       <path d="M 54.890625 33.015625 
L 54.890625 0 
L 45.90625 0 
L 45.90625 32.71875 
Q 45.90625 40.484375 42.875 44.328125 
Q 39.84375 48.1875 33.796875 48.1875 
Q 26.515625 48.1875 22.3125 43.546875 
Q 18.109375 38.921875 18.109375 30.90625 
L 18.109375 0 
L 9.078125 0 
L 9.078125 75.984375 
L 18.109375 75.984375 
L 18.109375 46.1875 
Q 21.34375 51.125 25.703125 53.5625 
Q 30.078125 56 35.796875 56 
Q 45.21875 56 50.046875 50.171875 
Q 54.890625 44.34375 54.890625 33.015625 
z
" id="DejaVuSans-104"/>
       <path d="M 44.28125 53.078125 
L 44.28125 44.578125 
Q 40.484375 46.53125 36.375 47.5 
Q 32.28125 48.484375 27.875 48.484375 
Q 21.1875 48.484375 17.84375 46.4375 
Q 14.5 44.390625 14.5 40.28125 
Q 14.5 37.15625 16.890625 35.375 
Q 19.28125 33.59375 26.515625 31.984375 
L 29.59375 31.296875 
Q 39.15625 29.25 43.1875 25.515625 
Q 47.21875 21.78125 47.21875 15.09375 
Q 47.21875 7.46875 41.1875 3.015625 
Q 35.15625 -1.421875 24.609375 -1.421875 
Q 20.21875 -1.421875 15.453125 -0.5625 
Q 10.6875 0.296875 5.421875 2 
L 5.421875 11.28125 
Q 10.40625 8.6875 15.234375 7.390625 
Q 20.0625 6.109375 24.8125 6.109375 
Q 31.15625 6.109375 34.5625 8.28125 
Q 37.984375 10.453125 37.984375 14.40625 
Q 37.984375 18.0625 35.515625 20.015625 
Q 33.0625 21.96875 24.703125 23.78125 
L 21.578125 24.515625 
Q 13.234375 26.265625 9.515625 29.90625 
Q 5.8125 33.546875 5.8125 39.890625 
Q 5.8125 47.609375 11.28125 51.796875 
Q 16.75 56 26.8125 56 
Q 31.78125 56 36.171875 55.265625 
Q 40.578125 54.546875 44.28125 53.078125 
z
" id="DejaVuSans-115"/>
      </defs>
      <use xlink:href="#DejaVuSans-69"/>
      <use x="63.183594" xlink:href="#DejaVuSans-112"/>
      <use x="126.660156" xlink:href="#DejaVuSans-111"/>
      <use x="187.841797" xlink:href="#DejaVuSans-99"/>
      <use x="242.822266" xlink:href="#DejaVuSans-104"/>
      <use x="306.201172" xlink:href="#DejaVuSans-115"/>
     </g>
    </g>
   </g>
   <g id="matplotlib.axis_2">
    <g id="ytick_1">
     <g id="line2d_6">
      <defs>
       <path d="M 0 0 
L -3.5 0 
" id="m09ca73a6e6" style="stroke:#000000;stroke-width:0.8;"/>
      </defs>
      <g>
       <use style="stroke:#000000;stroke-width:0.8;" x="135" xlink:href="#m09ca73a6e6" y="247.744264"/>
      </g>
     </g>
     <g id="text_7">
      <!-- 0.0 -->
      <g transform="translate(112.096875 251.543483)scale(0.1 -0.1)">
       <defs>
        <path d="M 10.6875 12.40625 
L 21 12.40625 
L 21 0 
L 10.6875 0 
z
" id="DejaVuSans-46"/>
       </defs>
       <use xlink:href="#DejaVuSans-48"/>
       <use x="63.623047" xlink:href="#DejaVuSans-46"/>
       <use x="95.410156" xlink:href="#DejaVuSans-48"/>
      </g>
     </g>
    </g>
    <g id="ytick_2">
     <g id="line2d_7">
      <g>
       <use style="stroke:#000000;stroke-width:0.8;" x="135" xlink:href="#m09ca73a6e6" y="207.023231"/>
      </g>
     </g>
     <g id="text_8">
      <!-- 0.2 -->
      <g transform="translate(112.096875 210.82245)scale(0.1 -0.1)">
       <use xlink:href="#DejaVuSans-48"/>
       <use x="63.623047" xlink:href="#DejaVuSans-46"/>
       <use x="95.410156" xlink:href="#DejaVuSans-50"/>
      </g>
     </g>
    </g>
    <g id="ytick_3">
     <g id="line2d_8">
      <g>
       <use style="stroke:#000000;stroke-width:0.8;" x="135" xlink:href="#m09ca73a6e6" y="166.302199"/>
      </g>
     </g>
     <g id="text_9">
      <!-- 0.4 -->
      <g transform="translate(112.096875 170.101417)scale(0.1 -0.1)">
       <defs>
        <path d="M 37.796875 64.3125 
L 12.890625 25.390625 
L 37.796875 25.390625 
z
M 35.203125 72.90625 
L 47.609375 72.90625 
L 47.609375 25.390625 
L 58.015625 25.390625 
L 58.015625 17.1875 
L 47.609375 17.1875 
L 47.609375 0 
L 37.796875 0 
L 37.796875 17.1875 
L 4.890625 17.1875 
L 4.890625 26.703125 
z
" id="DejaVuSans-52"/>
       </defs>
       <use xlink:href="#DejaVuSans-48"/>
       <use x="63.623047" xlink:href="#DejaVuSans-46"/>
       <use x="95.410156" xlink:href="#DejaVuSans-52"/>
      </g>
     </g>
    </g>
    <g id="ytick_4">
     <g id="line2d_9">
      <g>
       <use style="stroke:#000000;stroke-width:0.8;" x="135" xlink:href="#m09ca73a6e6" y="125.581166"/>
      </g>
     </g>
     <g id="text_10">
      <!-- 0.6 -->
      <g transform="translate(112.096875 129.380385)scale(0.1 -0.1)">
       <defs>
        <path d="M 33.015625 40.375 
Q 26.375 40.375 22.484375 35.828125 
Q 18.609375 31.296875 18.609375 23.390625 
Q 18.609375 15.53125 22.484375 10.953125 
Q 26.375 6.390625 33.015625 6.390625 
Q 39.65625 6.390625 43.53125 10.953125 
Q 47.40625 15.53125 47.40625 23.390625 
Q 47.40625 31.296875 43.53125 35.828125 
Q 39.65625 40.375 33.015625 40.375 
z
M 52.59375 71.296875 
L 52.59375 62.3125 
Q 48.875 64.0625 45.09375 64.984375 
Q 41.3125 65.921875 37.59375 65.921875 
Q 27.828125 65.921875 22.671875 59.328125 
Q 17.53125 52.734375 16.796875 39.40625 
Q 19.671875 43.65625 24.015625 45.921875 
Q 28.375 48.1875 33.59375 48.1875 
Q 44.578125 48.1875 50.953125 41.515625 
Q 57.328125 34.859375 57.328125 23.390625 
Q 57.328125 12.15625 50.6875 5.359375 
Q 44.046875 -1.421875 33.015625 -1.421875 
Q 20.359375 -1.421875 13.671875 8.265625 
Q 6.984375 17.96875 6.984375 36.375 
Q 6.984375 53.65625 15.1875 63.9375 
Q 23.390625 74.21875 37.203125 74.21875 
Q 40.921875 74.21875 44.703125 73.484375 
Q 48.484375 72.75 52.59375 71.296875 
z
" id="DejaVuSans-54"/>
       </defs>
       <use xlink:href="#DejaVuSans-48"/>
       <use x="63.623047" xlink:href="#DejaVuSans-46"/>
       <use x="95.410156" xlink:href="#DejaVuSans-54"/>
      </g>
     </g>
    </g>
    <g id="ytick_5">
     <g id="line2d_10">
      <g>
       <use style="stroke:#000000;stroke-width:0.8;" x="135" xlink:href="#m09ca73a6e6" y="84.860133"/>
      </g>
     </g>
     <g id="text_11">
      <!-- 0.8 -->
      <g transform="translate(112.096875 88.659352)scale(0.1 -0.1)">
       <defs>
        <path d="M 31.78125 34.625 
Q 24.75 34.625 20.71875 30.859375 
Q 16.703125 27.09375 16.703125 20.515625 
Q 16.703125 13.921875 20.71875 10.15625 
Q 24.75 6.390625 31.78125 6.390625 
Q 38.8125 6.390625 42.859375 10.171875 
Q 46.921875 13.96875 46.921875 20.515625 
Q 46.921875 27.09375 42.890625 30.859375 
Q 38.875 34.625 31.78125 34.625 
z
M 21.921875 38.8125 
Q 15.578125 40.375 12.03125 44.71875 
Q 8.5 49.078125 8.5 55.328125 
Q 8.5 64.0625 14.71875 69.140625 
Q 20.953125 74.21875 31.78125 74.21875 
Q 42.671875 74.21875 48.875 69.140625 
Q 55.078125 64.0625 55.078125 55.328125 
Q 55.078125 49.078125 51.53125 44.71875 
Q 48 40.375 41.703125 38.8125 
Q 48.828125 37.15625 52.796875 32.3125 
Q 56.78125 27.484375 56.78125 20.515625 
Q 56.78125 9.90625 50.3125 4.234375 
Q 43.84375 -1.421875 31.78125 -1.421875 
Q 19.734375 -1.421875 13.25 4.234375 
Q 6.78125 9.90625 6.78125 20.515625 
Q 6.78125 27.484375 10.78125 32.3125 
Q 14.796875 37.15625 21.921875 38.8125 
z
M 18.3125 54.390625 
Q 18.3125 48.734375 21.84375 45.5625 
Q 25.390625 42.390625 31.78125 42.390625 
Q 38.140625 42.390625 41.71875 45.5625 
Q 45.3125 48.734375 45.3125 54.390625 
Q 45.3125 60.0625 41.71875 63.234375 
Q 38.140625 66.40625 31.78125 66.40625 
Q 25.390625 66.40625 21.84375 63.234375 
Q 18.3125 60.0625 18.3125 54.390625 
z
" id="DejaVuSans-56"/>
       </defs>
       <use xlink:href="#DejaVuSans-48"/>
       <use x="63.623047" xlink:href="#DejaVuSans-46"/>
       <use x="95.410156" xlink:href="#DejaVuSans-56"/>
      </g>
     </g>
    </g>
    <g id="ytick_6">
     <g id="line2d_11">
      <g>
       <use style="stroke:#000000;stroke-width:0.8;" x="135" xlink:href="#m09ca73a6e6" y="44.1391"/>
      </g>
     </g>
     <g id="text_12">
      <!-- 1.0 -->
      <g transform="translate(112.096875 47.938319)scale(0.1 -0.1)">
       <use xlink:href="#DejaVuSans-49"/>
       <use x="63.623047" xlink:href="#DejaVuSans-46"/>
       <use x="95.410156" xlink:href="#DejaVuSans-48"/>
      </g>
     </g>
    </g>
    <g id="text_13">
     <!-- Loss -->
     <g transform="translate(106.017187 154.247187)rotate(-90)scale(0.1 -0.1)">
      <defs>
       <path d="M 9.8125 72.90625 
L 19.671875 72.90625 
L 19.671875 8.296875 
L 55.171875 8.296875 
L 55.171875 0 
L 9.8125 0 
z
" id="DejaVuSans-76"/>
      </defs>
      <use xlink:href="#DejaVuSans-76"/>
      <use x="53.962891" xlink:href="#DejaVuSans-111"/>
      <use x="115.144531" xlink:href="#DejaVuSans-115"/>
      <use x="167.244141" xlink:href="#DejaVuSans-115"/>
     </g>
    </g>
   </g>
   <g id="line2d_12">
    <path clip-path="url(#pcb51fd3cd4)" d="M 146.18984 211.85026 
L 147.314447 232.701147 
L 148.439054 236.020059 
L 149.563661 236.956873 
L 151.812875 238.159735 
L 152.937482 238.26229 
L 154.062089 238.848997 
L 155.186696 238.543602 
L 157.435909 239.034084 
L 158.560516 238.883028 
L 159.685123 239.125346 
L 160.80973 239.184542 
L 161.934337 239.087166 
L 163.058944 239.141999 
L 165.308158 239.532793 
L 166.432765 239.088063 
L 167.557372 239.359116 
L 168.681979 239.471838 
L 169.806586 238.372313 
L 172.0558 239.661647 
L 173.180407 239.349461 
L 174.305014 239.246059 
L 175.429621 239.709257 
L 176.554228 239.848824 
L 178.803442 239.853853 
L 179.928049 240.059482 
L 182.177263 239.571832 
L 183.30187 239.847267 
L 184.426477 239.896236 
L 185.551084 239.763268 
L 187.800298 240.11307 
L 191.174119 239.927654 
L 193.423333 240.091698 
L 194.54794 239.851444 
L 195.672547 239.787712 
L 202.420189 240.12041 
L 203.544796 239.668694 
L 205.79401 240.200111 
L 208.043224 240.131631 
L 209.167831 239.905551 
L 210.292438 239.944208 
L 211.417045 239.799696 
L 212.541652 239.947409 
L 213.666259 239.849124 
L 214.790866 240.174635 
L 215.915473 240.243738 
L 217.04008 239.973249 
L 218.164687 240.213661 
L 219.289294 240.09632 
L 220.413901 240.284378 
L 222.663115 239.941932 
L 226.036936 240.29204 
L 227.161543 240.237007 
L 228.28615 239.985727 
L 230.535364 240.284358 
L 231.659971 240.33259 
L 232.784578 240.068837 
L 233.909185 240.085037 
L 235.033792 240.247946 
L 236.158399 240.115262 
L 237.283006 240.438304 
L 238.407613 240.198026 
L 240.656827 240.386596 
L 241.781434 240.245266 
L 242.906041 240.664554 
L 244.030648 240.674391 
L 245.155255 240.473821 
L 246.279862 240.658403 
L 247.404469 240.367624 
L 250.77829 240.277251 
L 253.027504 240.571037 
L 254.152111 240.554772 
L 255.276718 240.019549 
L 257.525932 240.648191 
L 258.650539 240.363249 
L 259.775146 240.500092 
L 260.899753 240.494367 
L 262.02436 240.209847 
L 263.148967 240.525082 
L 265.398181 240.621563 
L 266.522788 240.734009 
L 267.647395 240.658627 
L 269.896609 240.802142 
L 272.145823 240.617611 
L 273.27043 240.634478 
L 274.395037 240.47649 
L 276.644251 240.673994 
L 277.768858 240.45041 
L 278.893465 240.712139 
L 280.018072 240.763646 
L 281.142679 240.500815 
L 282.267286 240.713487 
L 284.5165 240.706067 
L 285.641107 240.846491 
L 286.765714 240.60979 
L 289.014928 240.897528 
L 290.139535 240.486253 
L 291.264142 240.754609 
L 292.388749 240.780295 
L 293.513356 240.923129 
L 298.011784 240.846594 
L 299.136391 241.090135 
L 303.634818 240.969527 
L 304.759425 240.730351 
L 307.008639 241.236489 
L 309.257853 240.720603 
L 311.507067 240.995767 
L 312.631674 240.937456 
L 313.756281 240.6751 
L 314.880888 240.735252 
L 316.005495 241.055261 
L 317.130102 241.029507 
L 318.254709 240.884973 
L 320.503923 241.376571 
L 321.62853 241.204866 
L 322.753137 240.811937 
L 323.877744 241.025305 
L 325.002351 241.061468 
L 326.126958 241.357173 
L 327.251565 240.991596 
L 328.376172 241.036875 
L 329.500779 241.22507 
L 330.625386 240.897262 
L 335.123814 240.888138 
L 336.248421 241.155516 
L 337.373028 241.122376 
L 338.497635 241.339907 
L 340.746849 241.186755 
L 341.871456 241.061052 
L 347.494491 241.369921 
L 349.743705 241.350294 
L 350.868312 241.469286 
L 351.992919 241.462497 
L 353.117526 241.638867 
L 354.242133 241.650416 
L 355.36674 241.534966 
L 357.615954 241.600517 
L 358.740561 240.762058 
L 359.865168 241.318886 
L 363.238989 241.70674 
L 364.363596 241.338418 
L 365.488203 241.430271 
L 366.61281 241.688682 
L 367.737417 241.385525 
L 369.986631 241.468582 
L 369.986631 241.468582 
" style="fill:none;stroke:#ff0000;stroke-dasharray:5.55,2.4;stroke-dashoffset:0;stroke-width:1.5;"/>
   </g>
   <g id="line2d_13">
    <path clip-path="url(#pcb51fd3cd4)" d="M 146.18984 56.05693 
L 147.314447 45.988647 
L 148.439054 44.586426 
L 149.563661 44.443636 
L 150.688268 177.41856 
L 151.812875 237.248022 
L 152.937482 238.746951 
L 154.062089 238.73793 
L 155.186696 237.243151 
L 156.311303 238.670168 
L 157.435909 239.088469 
L 158.560516 239.323986 
L 159.685123 240.940534 
L 160.80973 238.868613 
L 161.934337 238.140615 
L 163.058944 239.454658 
L 164.183551 240.490583 
L 165.308158 240.131774 
L 166.432765 230.855024 
L 167.557372 240.202142 
L 168.681979 230.625263 
L 169.806586 239.405163 
L 170.931193 239.881179 
L 172.0558 239.17174 
L 173.180407 239.978426 
L 174.305014 240.639862 
L 176.554228 240.986096 
L 179.928049 240.527396 
L 181.052656 240.366208 
L 182.177263 240.976232 
L 183.30187 240.839306 
L 184.426477 240.867008 
L 185.551084 240.120601 
L 186.675691 240.759135 
L 187.800298 240.477953 
L 188.924905 240.699785 
L 190.049512 240.449264 
L 191.174119 240.373485 
L 192.298726 240.913419 
L 193.423333 239.710337 
L 194.54794 236.788889 
L 195.672547 234.873809 
L 196.797154 240.791926 
L 197.921761 239.956215 
L 199.046368 241.734786 
L 200.170975 240.158373 
L 201.295582 238.948165 
L 202.420189 240.831785 
L 203.544796 240.606937 
L 204.669403 240.205707 
L 205.79401 241.26663 
L 206.918617 240.715039 
L 208.043224 238.641802 
L 209.167831 239.952416 
L 210.292438 241.436892 
L 211.417045 241.069981 
L 212.541652 240.171564 
L 213.666259 240.623529 
L 214.790866 241.21785 
L 215.915473 240.194697 
L 217.04008 231.713414 
L 218.164687 240.355514 
L 219.289294 241.183954 
L 220.413901 240.978505 
L 221.538508 241.685546 
L 222.663115 241.150334 
L 223.787722 217.339428 
L 224.912329 241.576459 
L 226.036936 240.818361 
L 227.161543 241.029972 
L 228.28615 241.006036 
L 229.410757 241.232684 
L 230.535364 240.762054 
L 231.659971 233.144997 
L 232.784578 235.621919 
L 233.909185 240.335005 
L 235.033792 239.541197 
L 236.158399 241.483774 
L 237.283006 240.97899 
L 238.407613 241.820943 
L 239.53222 239.37021 
L 240.656827 240.719705 
L 241.781434 240.788163 
L 242.906041 241.289714 
L 244.030648 240.101955 
L 245.155255 241.1021 
L 246.279862 240.7348 
L 247.404469 241.033784 
L 248.529076 240.353251 
L 249.653683 240.158031 
L 250.77829 240.952053 
L 251.902897 240.17076 
L 253.027504 241.118684 
L 254.152111 241.439925 
L 255.276718 240.228313 
L 256.401325 240.642669 
L 257.525932 233.231565 
L 258.650539 240.698521 
L 259.775146 241.835499 
L 260.899753 241.095945 
L 262.02436 240.902854 
L 263.148967 241.077828 
L 266.522788 241.206638 
L 268.772002 240.555872 
L 269.896609 241.877108 
L 271.021216 240.154929 
L 272.145823 240.020235 
L 273.27043 241.531227 
L 274.395037 240.438862 
L 275.519644 242.116364 
L 276.644251 240.333194 
L 277.768858 241.208163 
L 278.893465 241.230101 
L 280.018072 240.336756 
L 281.142679 240.858554 
L 284.5165 241.216813 
L 285.641107 240.297253 
L 286.765714 241.742805 
L 287.890321 241.162097 
L 289.014928 240.067758 
L 290.139535 241.694431 
L 292.388749 240.224395 
L 293.513356 241.113209 
L 294.637963 240.391453 
L 295.76257 240.660671 
L 296.887177 240.199581 
L 298.011784 240.956048 
L 299.136391 241.43491 
L 300.260998 240.996911 
L 301.385604 241.16387 
L 302.510211 240.103635 
L 303.634818 240.911448 
L 305.884032 240.994086 
L 307.008639 240.366578 
L 308.133246 241.39431 
L 309.257853 241.076454 
L 310.38246 240.287228 
L 311.507067 241.020891 
L 312.631674 239.348967 
L 313.756281 240.702446 
L 314.880888 240.967187 
L 316.005495 240.964246 
L 317.130102 240.519792 
L 318.254709 240.865448 
L 319.379316 241.661149 
L 320.503923 240.417771 
L 321.62853 241.609094 
L 322.753137 240.345462 
L 323.877744 240.147919 
L 325.002351 241.571376 
L 326.126958 240.358972 
L 327.251565 241.105706 
L 328.376172 241.144713 
L 329.500779 241.355695 
L 330.625386 240.876165 
L 331.749993 239.898109 
L 332.8746 240.704147 
L 333.999207 241.220388 
L 336.248421 241.06997 
L 337.373028 240.643616 
L 338.497635 240.79211 
L 339.622242 241.512278 
L 340.746849 240.088413 
L 341.871456 241.327495 
L 342.996063 240.434128 
L 344.12067 240.685946 
L 345.245277 241.36759 
L 346.369884 240.876478 
L 347.494491 241.260907 
L 348.619098 240.26868 
L 350.868312 241.170494 
L 351.992919 240.572991 
L 353.117526 240.563998 
L 354.242133 241.698521 
L 355.36674 240.708001 
L 356.491347 240.739144 
L 357.615954 240.449209 
L 358.740561 240.664189 
L 359.865168 241.640145 
L 360.989775 240.27861 
L 363.238989 241.245482 
L 364.363596 240.814418 
L 365.488203 240.731259 
L 366.61281 241.370544 
L 368.862024 240.574031 
L 369.986631 241.079923 
L 369.986631 241.079923 
" style="fill:none;stroke:#0000ff;stroke-linecap:square;stroke-width:1.5;"/>
   </g>
   <g id="patch_3">
    <path d="M 135 252 
L 135 34.56 
" style="fill:none;stroke:#000000;stroke-linecap:square;stroke-linejoin:miter;stroke-width:0.8;"/>
   </g>
   <g id="patch_4">
    <path d="M 381.176471 252 
L 381.176471 34.56 
" style="fill:none;stroke:#000000;stroke-linecap:square;stroke-linejoin:miter;stroke-width:0.8;"/>
   </g>
   <g id="patch_5">
    <path d="M 135 252 
L 381.176471 252 
" style="fill:none;stroke:#000000;stroke-linecap:square;stroke-linejoin:miter;stroke-width:0.8;"/>
   </g>
   <g id="patch_6">
    <path d="M 135 34.56 
L 381.176471 34.56 
" style="fill:none;stroke:#000000;stroke-linecap:square;stroke-linejoin:miter;stroke-width:0.8;"/>
   </g>
   <g id="legend_1">
    <g id="patch_7">
     <path d="M 267.682721 71.91625 
L 374.176471 71.91625 
Q 376.176471 71.91625 376.176471 69.91625 
L 376.176471 41.56 
Q 376.176471 39.56 374.176471 39.56 
L 267.682721 39.56 
Q 265.682721 39.56 265.682721 41.56 
L 265.682721 69.91625 
Q 265.682721 71.91625 267.682721 71.91625 
z
" style="fill:#ffffff;opacity:0.8;stroke:#cccccc;stroke-linejoin:miter;"/>
    </g>
    <g id="line2d_14">
     <path d="M 269.682721 47.658437 
L 289.682721 47.658437 
" style="fill:none;stroke:#ff0000;stroke-dasharray:5.55,2.4;stroke-dashoffset:0;stroke-width:1.5;"/>
    </g>
    <g id="line2d_15"/>
    <g id="text_14">
     <!-- Training Loss -->
     <g transform="translate(297.682721 51.158437)scale(0.1 -0.1)">
      <defs>
       <path d="M -0.296875 72.90625 
L 61.375 72.90625 
L 61.375 64.59375 
L 35.5 64.59375 
L 35.5 0 
L 25.59375 0 
L 25.59375 64.59375 
L -0.296875 64.59375 
z
" id="DejaVuSans-84"/>
       <path d="M 41.109375 46.296875 
Q 39.59375 47.171875 37.8125 47.578125 
Q 36.03125 48 33.890625 48 
Q 26.265625 48 22.1875 43.046875 
Q 18.109375 38.09375 18.109375 28.8125 
L 18.109375 0 
L 9.078125 0 
L 9.078125 54.6875 
L 18.109375 54.6875 
L 18.109375 46.1875 
Q 20.953125 51.171875 25.484375 53.578125 
Q 30.03125 56 36.53125 56 
Q 37.453125 56 38.578125 55.875 
Q 39.703125 55.765625 41.0625 55.515625 
z
" id="DejaVuSans-114"/>
       <path d="M 34.28125 27.484375 
Q 23.390625 27.484375 19.1875 25 
Q 14.984375 22.515625 14.984375 16.5 
Q 14.984375 11.71875 18.140625 8.90625 
Q 21.296875 6.109375 26.703125 6.109375 
Q 34.1875 6.109375 38.703125 11.40625 
Q 43.21875 16.703125 43.21875 25.484375 
L 43.21875 27.484375 
z
M 52.203125 31.203125 
L 52.203125 0 
L 43.21875 0 
L 43.21875 8.296875 
Q 40.140625 3.328125 35.546875 0.953125 
Q 30.953125 -1.421875 24.3125 -1.421875 
Q 15.921875 -1.421875 10.953125 3.296875 
Q 6 8.015625 6 15.921875 
Q 6 25.140625 12.171875 29.828125 
Q 18.359375 34.515625 30.609375 34.515625 
L 43.21875 34.515625 
L 43.21875 35.40625 
Q 43.21875 41.609375 39.140625 45 
Q 35.0625 48.390625 27.6875 48.390625 
Q 23 48.390625 18.546875 47.265625 
Q 14.109375 46.140625 10.015625 43.890625 
L 10.015625 52.203125 
Q 14.9375 54.109375 19.578125 55.046875 
Q 24.21875 56 28.609375 56 
Q 40.484375 56 46.34375 49.84375 
Q 52.203125 43.703125 52.203125 31.203125 
z
" id="DejaVuSans-97"/>
       <path d="M 9.421875 54.6875 
L 18.40625 54.6875 
L 18.40625 0 
L 9.421875 0 
z
M 9.421875 75.984375 
L 18.40625 75.984375 
L 18.40625 64.59375 
L 9.421875 64.59375 
z
" id="DejaVuSans-105"/>
       <path d="M 54.890625 33.015625 
L 54.890625 0 
L 45.90625 0 
L 45.90625 32.71875 
Q 45.90625 40.484375 42.875 44.328125 
Q 39.84375 48.1875 33.796875 48.1875 
Q 26.515625 48.1875 22.3125 43.546875 
Q 18.109375 38.921875 18.109375 30.90625 
L 18.109375 0 
L 9.078125 0 
L 9.078125 54.6875 
L 18.109375 54.6875 
L 18.109375 46.1875 
Q 21.34375 51.125 25.703125 53.5625 
Q 30.078125 56 35.796875 56 
Q 45.21875 56 50.046875 50.171875 
Q 54.890625 44.34375 54.890625 33.015625 
z
" id="DejaVuSans-110"/>
       <path d="M 45.40625 27.984375 
Q 45.40625 37.75 41.375 43.109375 
Q 37.359375 48.484375 30.078125 48.484375 
Q 22.859375 48.484375 18.828125 43.109375 
Q 14.796875 37.75 14.796875 27.984375 
Q 14.796875 18.265625 18.828125 12.890625 
Q 22.859375 7.515625 30.078125 7.515625 
Q 37.359375 7.515625 41.375 12.890625 
Q 45.40625 18.265625 45.40625 27.984375 
z
M 54.390625 6.78125 
Q 54.390625 -7.171875 48.1875 -13.984375 
Q 42 -20.796875 29.203125 -20.796875 
Q 24.46875 -20.796875 20.265625 -20.09375 
Q 16.0625 -19.390625 12.109375 -17.921875 
L 12.109375 -9.1875 
Q 16.0625 -11.328125 19.921875 -12.34375 
Q 23.78125 -13.375 27.78125 -13.375 
Q 36.625 -13.375 41.015625 -8.765625 
Q 45.40625 -4.15625 45.40625 5.171875 
L 45.40625 9.625 
Q 42.625 4.78125 38.28125 2.390625 
Q 33.9375 0 27.875 0 
Q 17.828125 0 11.671875 7.65625 
Q 5.515625 15.328125 5.515625 27.984375 
Q 5.515625 40.671875 11.671875 48.328125 
Q 17.828125 56 27.875 56 
Q 33.9375 56 38.28125 53.609375 
Q 42.625 51.21875 45.40625 46.390625 
L 45.40625 54.6875 
L 54.390625 54.6875 
z
" id="DejaVuSans-103"/>
       <path id="DejaVuSans-32"/>
      </defs>
      <use xlink:href="#DejaVuSans-84"/>
      <use x="46.333984" xlink:href="#DejaVuSans-114"/>
      <use x="87.447266" xlink:href="#DejaVuSans-97"/>
      <use x="148.726562" xlink:href="#DejaVuSans-105"/>
      <use x="176.509766" xlink:href="#DejaVuSans-110"/>
      <use x="239.888672" xlink:href="#DejaVuSans-105"/>
      <use x="267.671875" xlink:href="#DejaVuSans-110"/>
      <use x="331.050781" xlink:href="#DejaVuSans-103"/>
      <use x="394.527344" xlink:href="#DejaVuSans-32"/>
      <use x="426.314453" xlink:href="#DejaVuSans-76"/>
      <use x="480.277344" xlink:href="#DejaVuSans-111"/>
      <use x="541.458984" xlink:href="#DejaVuSans-115"/>
      <use x="593.558594" xlink:href="#DejaVuSans-115"/>
     </g>
    </g>
    <g id="line2d_16">
     <path d="M 269.682721 62.336562 
L 289.682721 62.336562 
" style="fill:none;stroke:#0000ff;stroke-linecap:square;stroke-width:1.5;"/>
    </g>
    <g id="line2d_17"/>
    <g id="text_15">
     <!-- Validation Loss -->
     <g transform="translate(297.682721 65.836562)scale(0.1 -0.1)">
      <defs>
       <path d="M 28.609375 0 
L 0.78125 72.90625 
L 11.078125 72.90625 
L 34.1875 11.53125 
L 57.328125 72.90625 
L 67.578125 72.90625 
L 39.796875 0 
z
" id="DejaVuSans-86"/>
       <path d="M 9.421875 75.984375 
L 18.40625 75.984375 
L 18.40625 0 
L 9.421875 0 
z
" id="DejaVuSans-108"/>
       <path d="M 45.40625 46.390625 
L 45.40625 75.984375 
L 54.390625 75.984375 
L 54.390625 0 
L 45.40625 0 
L 45.40625 8.203125 
Q 42.578125 3.328125 38.25 0.953125 
Q 33.9375 -1.421875 27.875 -1.421875 
Q 17.96875 -1.421875 11.734375 6.484375 
Q 5.515625 14.40625 5.515625 27.296875 
Q 5.515625 40.1875 11.734375 48.09375 
Q 17.96875 56 27.875 56 
Q 33.9375 56 38.25 53.625 
Q 42.578125 51.265625 45.40625 46.390625 
z
M 14.796875 27.296875 
Q 14.796875 17.390625 18.875 11.75 
Q 22.953125 6.109375 30.078125 6.109375 
Q 37.203125 6.109375 41.296875 11.75 
Q 45.40625 17.390625 45.40625 27.296875 
Q 45.40625 37.203125 41.296875 42.84375 
Q 37.203125 48.484375 30.078125 48.484375 
Q 22.953125 48.484375 18.875 42.84375 
Q 14.796875 37.203125 14.796875 27.296875 
z
" id="DejaVuSans-100"/>
       <path d="M 18.3125 70.21875 
L 18.3125 54.6875 
L 36.8125 54.6875 
L 36.8125 47.703125 
L 18.3125 47.703125 
L 18.3125 18.015625 
Q 18.3125 11.328125 20.140625 9.421875 
Q 21.96875 7.515625 27.59375 7.515625 
L 36.8125 7.515625 
L 36.8125 0 
L 27.59375 0 
Q 17.1875 0 13.234375 3.875 
Q 9.28125 7.765625 9.28125 18.015625 
L 9.28125 47.703125 
L 2.6875 47.703125 
L 2.6875 54.6875 
L 9.28125 54.6875 
L 9.28125 70.21875 
z
" id="DejaVuSans-116"/>
      </defs>
      <use xlink:href="#DejaVuSans-86"/>
      <use x="60.658203" xlink:href="#DejaVuSans-97"/>
      <use x="121.9375" xlink:href="#DejaVuSans-108"/>
      <use x="149.720703" xlink:href="#DejaVuSans-105"/>
      <use x="177.503906" xlink:href="#DejaVuSans-100"/>
      <use x="240.980469" xlink:href="#DejaVuSans-97"/>
      <use x="302.259766" xlink:href="#DejaVuSans-116"/>
      <use x="341.46875" xlink:href="#DejaVuSans-105"/>
      <use x="369.251953" xlink:href="#DejaVuSans-111"/>
      <use x="430.433594" xlink:href="#DejaVuSans-110"/>
      <use x="493.8125" xlink:href="#DejaVuSans-32"/>
      <use x="525.599609" xlink:href="#DejaVuSans-76"/>
      <use x="579.5625" xlink:href="#DejaVuSans-111"/>
      <use x="640.744141" xlink:href="#DejaVuSans-115"/>
      <use x="692.84375" xlink:href="#DejaVuSans-115"/>
     </g>
    </g>
   </g>
  </g>
  <g id="axes_2">
   <g id="patch_8">
    <path d="M 430.411765 252 
L 676.588235 252 
L 676.588235 34.56 
L 430.411765 34.56 
z
" style="fill:#ffffff;"/>
   </g>
   <g id="matplotlib.axis_3">
    <g id="xtick_6">
     <g id="line2d_18">
      <g>
       <use style="stroke:#000000;stroke-width:0.8;" x="440.476997" xlink:href="#mf16d4f780f" y="252"/>
      </g>
     </g>
     <g id="text_16">
      <!-- 0 -->
      <g transform="translate(437.295747 266.598437)scale(0.1 -0.1)">
       <use xlink:href="#DejaVuSans-48"/>
      </g>
     </g>
    </g>
    <g id="xtick_7">
     <g id="line2d_19">
      <g>
       <use style="stroke:#000000;stroke-width:0.8;" x="496.707347" xlink:href="#mf16d4f780f" y="252"/>
      </g>
     </g>
     <g id="text_17">
      <!-- 50 -->
      <g transform="translate(490.344847 266.598437)scale(0.1 -0.1)">
       <use xlink:href="#DejaVuSans-53"/>
       <use x="63.623047" xlink:href="#DejaVuSans-48"/>
      </g>
     </g>
    </g>
    <g id="xtick_8">
     <g id="line2d_20">
      <g>
       <use style="stroke:#000000;stroke-width:0.8;" x="552.937697" xlink:href="#mf16d4f780f" y="252"/>
      </g>
     </g>
     <g id="text_18">
      <!-- 100 -->
      <g transform="translate(543.393947 266.598437)scale(0.1 -0.1)">
       <use xlink:href="#DejaVuSans-49"/>
       <use x="63.623047" xlink:href="#DejaVuSans-48"/>
       <use x="127.246094" xlink:href="#DejaVuSans-48"/>
      </g>
     </g>
    </g>
    <g id="xtick_9">
     <g id="line2d_21">
      <g>
       <use style="stroke:#000000;stroke-width:0.8;" x="609.168046" xlink:href="#mf16d4f780f" y="252"/>
      </g>
     </g>
     <g id="text_19">
      <!-- 150 -->
      <g transform="translate(599.624296 266.598437)scale(0.1 -0.1)">
       <use xlink:href="#DejaVuSans-49"/>
       <use x="63.623047" xlink:href="#DejaVuSans-53"/>
       <use x="127.246094" xlink:href="#DejaVuSans-48"/>
      </g>
     </g>
    </g>
    <g id="xtick_10">
     <g id="line2d_22">
      <g>
       <use style="stroke:#000000;stroke-width:0.8;" x="665.398396" xlink:href="#mf16d4f780f" y="252"/>
      </g>
     </g>
     <g id="text_20">
      <!-- 200 -->
      <g transform="translate(655.854646 266.598437)scale(0.1 -0.1)">
       <use xlink:href="#DejaVuSans-50"/>
       <use x="63.623047" xlink:href="#DejaVuSans-48"/>
       <use x="127.246094" xlink:href="#DejaVuSans-48"/>
      </g>
     </g>
    </g>
    <g id="text_21">
     <!-- Epochs -->
     <g transform="translate(535.584375 280.276563)scale(0.1 -0.1)">
      <use xlink:href="#DejaVuSans-69"/>
      <use x="63.183594" xlink:href="#DejaVuSans-112"/>
      <use x="126.660156" xlink:href="#DejaVuSans-111"/>
      <use x="187.841797" xlink:href="#DejaVuSans-99"/>
      <use x="242.822266" xlink:href="#DejaVuSans-104"/>
      <use x="306.201172" xlink:href="#DejaVuSans-115"/>
     </g>
    </g>
   </g>
   <g id="matplotlib.axis_4">
    <g id="ytick_7">
     <g id="line2d_23">
      <g>
       <use style="stroke:#000000;stroke-width:0.8;" x="430.411765" xlink:href="#m09ca73a6e6" y="242.419244"/>
      </g>
     </g>
     <g id="text_22">
      <!-- 0.0 -->
      <g transform="translate(407.50864 246.218463)scale(0.1 -0.1)">
       <use xlink:href="#DejaVuSans-48"/>
       <use x="63.623047" xlink:href="#DejaVuSans-46"/>
       <use x="95.410156" xlink:href="#DejaVuSans-48"/>
      </g>
     </g>
    </g>
    <g id="ytick_8">
     <g id="line2d_24">
      <g>
       <use style="stroke:#000000;stroke-width:0.8;" x="430.411765" xlink:href="#m09ca73a6e6" y="201.684881"/>
      </g>
     </g>
     <g id="text_23">
      <!-- 0.2 -->
      <g transform="translate(407.50864 205.4841)scale(0.1 -0.1)">
       <use xlink:href="#DejaVuSans-48"/>
       <use x="63.623047" xlink:href="#DejaVuSans-46"/>
       <use x="95.410156" xlink:href="#DejaVuSans-50"/>
      </g>
     </g>
    </g>
    <g id="ytick_9">
     <g id="line2d_25">
      <g>
       <use style="stroke:#000000;stroke-width:0.8;" x="430.411765" xlink:href="#m09ca73a6e6" y="160.950519"/>
      </g>
     </g>
     <g id="text_24">
      <!-- 0.4 -->
      <g transform="translate(407.50864 164.749737)scale(0.1 -0.1)">
       <use xlink:href="#DejaVuSans-48"/>
       <use x="63.623047" xlink:href="#DejaVuSans-46"/>
       <use x="95.410156" xlink:href="#DejaVuSans-52"/>
      </g>
     </g>
    </g>
    <g id="ytick_10">
     <g id="line2d_26">
      <g>
       <use style="stroke:#000000;stroke-width:0.8;" x="430.411765" xlink:href="#m09ca73a6e6" y="120.216156"/>
      </g>
     </g>
     <g id="text_25">
      <!-- 0.6 -->
      <g transform="translate(407.50864 124.015375)scale(0.1 -0.1)">
       <use xlink:href="#DejaVuSans-48"/>
       <use x="63.623047" xlink:href="#DejaVuSans-46"/>
       <use x="95.410156" xlink:href="#DejaVuSans-54"/>
      </g>
     </g>
    </g>
    <g id="ytick_11">
     <g id="line2d_27">
      <g>
       <use style="stroke:#000000;stroke-width:0.8;" x="430.411765" xlink:href="#m09ca73a6e6" y="79.481793"/>
      </g>
     </g>
     <g id="text_26">
      <!-- 0.8 -->
      <g transform="translate(407.50864 83.281012)scale(0.1 -0.1)">
       <use xlink:href="#DejaVuSans-48"/>
       <use x="63.623047" xlink:href="#DejaVuSans-46"/>
       <use x="95.410156" xlink:href="#DejaVuSans-56"/>
      </g>
     </g>
    </g>
    <g id="ytick_12">
     <g id="line2d_28">
      <g>
       <use style="stroke:#000000;stroke-width:0.8;" x="430.411765" xlink:href="#m09ca73a6e6" y="38.74743"/>
      </g>
     </g>
     <g id="text_27">
      <!-- 1.0 -->
      <g transform="translate(407.50864 42.546649)scale(0.1 -0.1)">
       <use xlink:href="#DejaVuSans-49"/>
       <use x="63.623047" xlink:href="#DejaVuSans-46"/>
       <use x="95.410156" xlink:href="#DejaVuSans-48"/>
      </g>
     </g>
    </g>
    <g id="text_28">
     <!-- Dice -->
     <g transform="translate(401.428952 154.344844)rotate(-90)scale(0.1 -0.1)">
      <defs>
       <path d="M 19.671875 64.796875 
L 19.671875 8.109375 
L 31.59375 8.109375 
Q 46.6875 8.109375 53.6875 14.9375 
Q 60.6875 21.78125 60.6875 36.53125 
Q 60.6875 51.171875 53.6875 57.984375 
Q 46.6875 64.796875 31.59375 64.796875 
z
M 9.8125 72.90625 
L 30.078125 72.90625 
Q 51.265625 72.90625 61.171875 64.09375 
Q 71.09375 55.28125 71.09375 36.53125 
Q 71.09375 17.671875 61.125 8.828125 
Q 51.171875 0 30.078125 0 
L 9.8125 0 
z
" id="DejaVuSans-68"/>
       <path d="M 56.203125 29.59375 
L 56.203125 25.203125 
L 14.890625 25.203125 
Q 15.484375 15.921875 20.484375 11.0625 
Q 25.484375 6.203125 34.421875 6.203125 
Q 39.59375 6.203125 44.453125 7.46875 
Q 49.3125 8.734375 54.109375 11.28125 
L 54.109375 2.78125 
Q 49.265625 0.734375 44.1875 -0.34375 
Q 39.109375 -1.421875 33.890625 -1.421875 
Q 20.796875 -1.421875 13.15625 6.1875 
Q 5.515625 13.8125 5.515625 26.8125 
Q 5.515625 40.234375 12.765625 48.109375 
Q 20.015625 56 32.328125 56 
Q 43.359375 56 49.78125 48.890625 
Q 56.203125 41.796875 56.203125 29.59375 
z
M 47.21875 32.234375 
Q 47.125 39.59375 43.09375 43.984375 
Q 39.0625 48.390625 32.421875 48.390625 
Q 24.90625 48.390625 20.390625 44.140625 
Q 15.875 39.890625 15.1875 32.171875 
z
" id="DejaVuSans-101"/>
      </defs>
      <use xlink:href="#DejaVuSans-68"/>
      <use x="77.001953" xlink:href="#DejaVuSans-105"/>
      <use x="104.785156" xlink:href="#DejaVuSans-99"/>
      <use x="159.765625" xlink:href="#DejaVuSans-101"/>
     </g>
    </g>
   </g>
   <g id="line2d_29">
    <path clip-path="url(#p0d24a0abea)" d="M 441.601604 74.569438 
L 442.726211 53.777869 
L 443.850818 50.472448 
L 444.975425 49.556052 
L 446.100032 48.858913 
L 447.224639 48.406985 
L 448.349246 48.228858 
L 449.473853 47.634215 
L 450.59846 47.954487 
L 452.847674 47.466589 
L 453.972281 47.623338 
L 455.096888 47.383371 
L 459.595316 47.155604 
L 460.719923 46.948936 
L 461.84453 47.397598 
L 462.969137 47.152059 
L 464.093744 47.041235 
L 465.218351 48.10377 
L 466.342958 47.407614 
L 467.467565 46.849936 
L 468.592172 47.150675 
L 469.716779 47.260904 
L 470.841386 46.771161 
L 473.0906 46.607177 
L 474.215207 46.636494 
L 475.339814 46.436576 
L 476.464421 46.64742 
L 477.589028 46.982102 
L 478.713635 46.679761 
L 479.838242 46.590121 
L 480.962849 46.740144 
L 483.212063 46.369553 
L 484.33667 46.47262 
L 485.461277 46.695919 
L 488.835098 46.396212 
L 489.959705 46.643135 
L 491.084312 46.701515 
L 497.831954 46.361164 
L 498.956561 46.825875 
L 501.205775 46.279573 
L 503.454989 46.349486 
L 504.579596 46.586236 
L 505.704203 46.536111 
L 506.82881 46.732205 
L 507.953417 46.55676 
L 509.078024 46.631153 
L 510.202631 46.335246 
L 511.327238 46.249648 
L 512.451845 46.521239 
L 513.576452 46.275894 
L 514.701059 46.389523 
L 515.825666 46.203092 
L 518.07488 46.545798 
L 519.199487 46.41067 
L 520.324094 46.397826 
L 521.448701 46.255451 
L 522.573308 46.263135 
L 523.697915 46.498708 
L 524.822522 46.315434 
L 527.071736 46.163929 
L 528.196343 46.41833 
L 529.32095 46.397547 
L 530.445557 46.247123 
L 531.570164 46.388394 
L 532.694771 46.052996 
L 533.819378 46.335889 
L 534.943985 46.167717 
L 536.068592 46.120893 
L 537.193199 46.252222 
L 538.317806 45.892411 
L 539.442413 45.819827 
L 540.56702 46.022136 
L 541.691627 45.828094 
L 542.816234 46.118963 
L 546.190055 46.209332 
L 548.439269 45.916739 
L 549.563876 45.922141 
L 550.688483 46.467035 
L 552.937697 45.844434 
L 554.062303 46.132487 
L 556.311517 45.993244 
L 557.436124 46.274134 
L 558.560731 45.957152 
L 560.809945 45.860981 
L 561.934552 45.769143 
L 563.059159 45.834649 
L 565.308373 45.701148 
L 566.43298 45.861527 
L 570.931408 45.960357 
L 572.056015 45.81213 
L 573.180622 46.030185 
L 574.305229 45.766339 
L 575.429836 45.714672 
L 576.554443 45.985729 
L 577.67905 45.773271 
L 579.928264 45.770381 
L 581.052871 45.645196 
L 582.177478 45.871409 
L 584.426692 45.590276 
L 585.551299 45.999738 
L 586.675906 45.771037 
L 587.800513 45.737252 
L 588.92512 45.581159 
L 593.423548 45.636273 
L 594.548155 45.398892 
L 599.046583 45.567659 
L 600.17119 45.774363 
L 602.420404 45.246428 
L 604.669618 45.763802 
L 606.918832 45.493097 
L 608.043439 45.567562 
L 609.168046 45.817605 
L 610.292653 45.745811 
L 611.41726 45.425915 
L 612.541867 45.460598 
L 613.666474 45.626926 
L 615.915688 45.111203 
L 617.040295 45.294417 
L 618.164902 45.686981 
L 619.289509 45.456337 
L 620.414116 45.423402 
L 621.538723 45.135289 
L 622.66333 45.503415 
L 623.787937 45.452683 
L 624.912544 45.257306 
L 626.037151 45.58752 
L 629.410972 45.535489 
L 630.535579 45.595933 
L 631.660186 45.364609 
L 632.784793 45.376397 
L 633.9094 45.146906 
L 636.158614 45.296614 
L 637.283221 45.435651 
L 642.906256 45.116047 
L 645.15547 45.146906 
L 646.280077 45.022874 
L 647.404684 45.018564 
L 648.529291 44.853051 
L 649.653898 44.830301 
L 650.778505 44.962636 
L 653.027719 44.90127 
L 654.152326 45.728621 
L 655.276933 45.172691 
L 656.40154 45.077345 
L 657.526147 45.113959 
L 658.650754 44.78196 
L 659.775361 45.140302 
L 660.899968 45.058735 
L 662.024575 44.802051 
L 663.149182 45.097425 
L 664.273789 45.118742 
L 665.398396 45.025338 
L 665.398396 45.025338 
" style="fill:none;stroke:#ff0000;stroke-dasharray:5.55,2.4;stroke-dashoffset:0;stroke-width:1.5;"/>
   </g>
   <g id="line2d_30">
    <path clip-path="url(#p0d24a0abea)" d="M 441.601604 230.518369 
L 442.726211 240.56924 
L 443.850818 241.970994 
L 444.975425 242.116364 
L 446.100032 105.938354 
L 447.224639 49.680085 
L 448.349246 47.557358 
L 449.473853 47.767813 
L 450.59846 49.779522 
L 451.723067 48.145749 
L 452.847674 47.351868 
L 453.972281 47.145674 
L 455.096888 45.489455 
L 456.221495 47.448015 
L 457.346102 48.365431 
L 458.470709 46.812145 
L 459.595316 46.492735 
L 460.719923 46.338924 
L 461.84453 55.786858 
L 462.969137 46.171043 
L 464.093744 55.397669 
L 465.218351 46.982612 
L 466.342958 46.391271 
L 467.467565 47.189098 
L 468.592172 46.359574 
L 469.716779 45.775371 
L 470.841386 45.486966 
L 473.0906 45.56375 
L 474.215207 46.162302 
L 475.339814 45.830631 
L 476.464421 46.06601 
L 477.589028 45.398224 
L 478.713635 45.608437 
L 479.838242 45.57379 
L 480.962849 46.266122 
L 482.087456 45.678702 
L 483.212063 45.880708 
L 484.33667 45.730806 
L 485.461277 45.823007 
L 486.585884 46.103279 
L 487.710491 45.648158 
L 488.835098 46.6561 
L 489.959705 49.618232 
L 491.084312 51.481847 
L 492.208919 45.632656 
L 493.333526 46.344411 
L 494.458133 44.90479 
L 495.58274 46.105051 
L 496.707347 47.471384 
L 497.831954 45.788312 
L 498.956561 45.763522 
L 500.081168 46.054586 
L 501.205775 45.17932 
L 502.330382 45.679855 
L 503.454989 47.912337 
L 505.704203 45.090638 
L 506.82881 45.281015 
L 507.953417 47.107652 
L 509.078024 45.700104 
L 510.202631 45.687115 
L 511.327238 46.150163 
L 512.451845 54.891974 
L 513.576452 46.021177 
L 514.701059 45.109394 
L 515.825666 45.394934 
L 516.950273 44.789669 
L 518.07488 45.782278 
L 519.199487 68.330766 
L 520.324094 44.83807 
L 521.448701 46.143935 
L 522.573308 45.43275 
L 523.697915 45.476975 
L 524.822522 45.24967 
L 525.947129 45.617299 
L 527.071736 55.879145 
L 528.196343 50.613464 
L 529.32095 46.120032 
L 530.445557 46.755999 
L 531.570164 45.046887 
L 532.694771 45.326502 
L 533.819378 44.668975 
L 534.943985 47.609037 
L 536.068592 45.716772 
L 537.193199 45.571131 
L 538.317806 45.224419 
L 539.442413 46.411751 
L 540.56702 45.514244 
L 541.691627 45.604115 
L 542.816234 45.33222 
L 543.940841 45.983362 
L 545.065448 46.275069 
L 546.190055 45.311073 
L 547.314662 46.365632 
L 548.439269 45.205238 
L 549.563876 44.9706 
L 550.688483 46.232567 
L 551.81309 45.720827 
L 552.937697 53.066369 
L 554.062303 45.670471 
L 555.18691 44.552457 
L 556.311517 45.290095 
L 557.436124 45.391122 
L 558.560731 45.26068 
L 559.685338 46.114083 
L 560.809945 45.157905 
L 561.934552 45.248917 
L 563.059159 45.654495 
L 564.183766 46.406385 
L 565.308373 44.72171 
L 566.43298 46.219906 
L 567.557587 46.340308 
L 568.682194 44.801226 
L 569.806801 45.939015 
L 570.931408 44.443636 
L 572.056015 46.016394 
L 573.180622 45.157978 
L 574.305229 45.258823 
L 575.429836 46.664914 
L 576.554443 45.466935 
L 577.67905 45.514038 
L 579.928264 45.154045 
L 581.052871 46.826324 
L 582.177478 44.812528 
L 583.302085 45.225499 
L 584.426692 46.387981 
L 585.551299 44.743987 
L 587.800513 46.146496 
L 588.92512 45.267369 
L 590.049727 46.015557 
L 591.174334 45.615223 
L 592.298941 46.200021 
L 593.423548 45.407171 
L 595.672762 45.465102 
L 596.797369 45.298872 
L 597.921976 46.835903 
L 599.046583 45.500004 
L 601.295797 45.468429 
L 602.420404 46.000795 
L 603.545011 45.131282 
L 604.669618 45.281269 
L 605.794225 46.167231 
L 606.918832 45.37579 
L 608.043439 47.117922 
L 609.168046 45.642841 
L 611.41726 45.435882 
L 612.541867 45.989747 
L 613.666474 45.894705 
L 614.791081 44.768606 
L 615.915688 46.054695 
L 617.040295 45.02495 
L 618.164902 46.611887 
L 619.289509 46.595838 
L 620.414116 44.862811 
L 621.538723 46.3983 
L 622.66333 45.189541 
L 623.787937 45.18216 
L 624.912544 45.051997 
L 626.037151 46.307433 
L 627.161758 46.453803 
L 628.286365 45.728888 
L 629.410972 45.24763 
L 630.535579 45.365155 
L 631.660186 45.198258 
L 632.784793 46.439199 
L 635.034007 44.912645 
L 636.158614 46.258122 
L 637.283221 44.940141 
L 638.407828 46.534921 
L 639.532435 45.779875 
L 640.657042 45.213517 
L 641.781649 46.058811 
L 642.906256 45.123477 
L 644.030863 46.000965 
L 646.280077 45.226058 
L 648.529291 46.572615 
L 649.653898 44.806215 
L 650.778505 45.680341 
L 651.903112 45.720208 
L 653.027719 45.887518 
L 654.152326 45.691619 
L 655.276933 44.798652 
L 656.40154 46.138059 
L 658.650754 45.047299 
L 659.775361 46.448291 
L 660.899968 45.586816 
L 662.024575 45.140011 
L 663.149182 45.368057 
L 664.273789 45.979453 
L 665.398396 45.391207 
L 665.398396 45.391207 
" style="fill:none;stroke:#0000ff;stroke-linecap:square;stroke-width:1.5;"/>
   </g>
   <g id="patch_9">
    <path d="M 430.411765 252 
L 430.411765 34.56 
" style="fill:none;stroke:#000000;stroke-linecap:square;stroke-linejoin:miter;stroke-width:0.8;"/>
   </g>
   <g id="patch_10">
    <path d="M 676.588235 252 
L 676.588235 34.56 
" style="fill:none;stroke:#000000;stroke-linecap:square;stroke-linejoin:miter;stroke-width:0.8;"/>
   </g>
   <g id="patch_11">
    <path d="M 430.411765 252 
L 676.588235 252 
" style="fill:none;stroke:#000000;stroke-linecap:square;stroke-linejoin:miter;stroke-width:0.8;"/>
   </g>
   <g id="patch_12">
    <path d="M 430.411765 34.56 
L 676.588235 34.56 
" style="fill:none;stroke:#000000;stroke-linecap:square;stroke-linejoin:miter;stroke-width:0.8;"/>
   </g>
   <g id="legend_2">
    <g id="patch_13">
     <path d="M 562.575735 247 
L 669.588235 247 
Q 671.588235 247 671.588235 245 
L 671.588235 216.365625 
Q 671.588235 214.365625 669.588235 214.365625 
L 562.575735 214.365625 
Q 560.575735 214.365625 560.575735 216.365625 
L 560.575735 245 
Q 560.575735 247 562.575735 247 
z
" style="fill:#ffffff;opacity:0.8;stroke:#cccccc;stroke-linejoin:miter;"/>
    </g>
    <g id="line2d_31">
     <path d="M 564.575735 222.464063 
L 584.575735 222.464063 
" style="fill:none;stroke:#ff0000;stroke-dasharray:5.55,2.4;stroke-dashoffset:0;stroke-width:1.5;"/>
    </g>
    <g id="line2d_32"/>
    <g id="text_29">
     <!-- dice -->
     <g transform="translate(592.575735 225.964063)scale(0.1 -0.1)">
      <use xlink:href="#DejaVuSans-100"/>
      <use x="63.476562" xlink:href="#DejaVuSans-105"/>
      <use x="91.259766" xlink:href="#DejaVuSans-99"/>
      <use x="146.240234" xlink:href="#DejaVuSans-101"/>
     </g>
    </g>
    <g id="line2d_33">
     <path d="M 564.575735 237.142188 
L 584.575735 237.142188 
" style="fill:none;stroke:#0000ff;stroke-linecap:square;stroke-width:1.5;"/>
    </g>
    <g id="line2d_34"/>
    <g id="text_30">
     <!-- dice_validation -->
     <g transform="translate(592.575735 240.642188)scale(0.1 -0.1)">
      <defs>
       <path d="M 50.984375 -16.609375 
L 50.984375 -23.578125 
L -0.984375 -23.578125 
L -0.984375 -16.609375 
z
" id="DejaVuSans-95"/>
       <path d="M 2.984375 54.6875 
L 12.5 54.6875 
L 29.59375 8.796875 
L 46.6875 54.6875 
L 56.203125 54.6875 
L 35.6875 0 
L 23.484375 0 
z
" id="DejaVuSans-118"/>
      </defs>
      <use xlink:href="#DejaVuSans-100"/>
      <use x="63.476562" xlink:href="#DejaVuSans-105"/>
      <use x="91.259766" xlink:href="#DejaVuSans-99"/>
      <use x="146.240234" xlink:href="#DejaVuSans-101"/>
      <use x="207.763672" xlink:href="#DejaVuSans-95"/>
      <use x="257.763672" xlink:href="#DejaVuSans-118"/>
      <use x="316.943359" xlink:href="#DejaVuSans-97"/>
      <use x="378.222656" xlink:href="#DejaVuSans-108"/>
      <use x="406.005859" xlink:href="#DejaVuSans-105"/>
      <use x="433.789062" xlink:href="#DejaVuSans-100"/>
      <use x="497.265625" xlink:href="#DejaVuSans-97"/>
      <use x="558.544922" xlink:href="#DejaVuSans-116"/>
      <use x="597.753906" xlink:href="#DejaVuSans-105"/>
      <use x="625.537109" xlink:href="#DejaVuSans-111"/>
      <use x="686.71875" xlink:href="#DejaVuSans-110"/>
     </g>
    </g>
   </g>
  </g>
  <g id="axes_3">
   <g id="patch_14">
    <path d="M 725.823529 252 
L 972 252 
L 972 34.56 
L 725.823529 34.56 
z
" style="fill:#ffffff;"/>
   </g>
   <g id="matplotlib.axis_5">
    <g id="xtick_11">
     <g id="line2d_35">
      <g>
       <use style="stroke:#000000;stroke-width:0.8;" x="735.888762" xlink:href="#mf16d4f780f" y="252"/>
      </g>
     </g>
     <g id="text_31">
      <!-- 0 -->
      <g transform="translate(732.707512 266.598437)scale(0.1 -0.1)">
       <use xlink:href="#DejaVuSans-48"/>
      </g>
     </g>
    </g>
    <g id="xtick_12">
     <g id="line2d_36">
      <g>
       <use style="stroke:#000000;stroke-width:0.8;" x="792.119112" xlink:href="#mf16d4f780f" y="252"/>
      </g>
     </g>
     <g id="text_32">
      <!-- 50 -->
      <g transform="translate(785.756612 266.598437)scale(0.1 -0.1)">
       <use xlink:href="#DejaVuSans-53"/>
       <use x="63.623047" xlink:href="#DejaVuSans-48"/>
      </g>
     </g>
    </g>
    <g id="xtick_13">
     <g id="line2d_37">
      <g>
       <use style="stroke:#000000;stroke-width:0.8;" x="848.349461" xlink:href="#mf16d4f780f" y="252"/>
      </g>
     </g>
     <g id="text_33">
      <!-- 100 -->
      <g transform="translate(838.805711 266.598437)scale(0.1 -0.1)">
       <use xlink:href="#DejaVuSans-49"/>
       <use x="63.623047" xlink:href="#DejaVuSans-48"/>
       <use x="127.246094" xlink:href="#DejaVuSans-48"/>
      </g>
     </g>
    </g>
    <g id="xtick_14">
     <g id="line2d_38">
      <g>
       <use style="stroke:#000000;stroke-width:0.8;" x="904.579811" xlink:href="#mf16d4f780f" y="252"/>
      </g>
     </g>
     <g id="text_34">
      <!-- 150 -->
      <g transform="translate(895.036061 266.598437)scale(0.1 -0.1)">
       <use xlink:href="#DejaVuSans-49"/>
       <use x="63.623047" xlink:href="#DejaVuSans-53"/>
       <use x="127.246094" xlink:href="#DejaVuSans-48"/>
      </g>
     </g>
    </g>
    <g id="xtick_15">
     <g id="line2d_39">
      <g>
       <use style="stroke:#000000;stroke-width:0.8;" x="960.81016" xlink:href="#mf16d4f780f" y="252"/>
      </g>
     </g>
     <g id="text_35">
      <!-- 200 -->
      <g transform="translate(951.26641 266.598437)scale(0.1 -0.1)">
       <use xlink:href="#DejaVuSans-50"/>
       <use x="63.623047" xlink:href="#DejaVuSans-48"/>
       <use x="127.246094" xlink:href="#DejaVuSans-48"/>
      </g>
     </g>
    </g>
    <g id="text_36">
     <!-- Epochs -->
     <g transform="translate(830.99614 280.276563)scale(0.1 -0.1)">
      <use xlink:href="#DejaVuSans-69"/>
      <use x="63.183594" xlink:href="#DejaVuSans-112"/>
      <use x="126.660156" xlink:href="#DejaVuSans-111"/>
      <use x="187.841797" xlink:href="#DejaVuSans-99"/>
      <use x="242.822266" xlink:href="#DejaVuSans-104"/>
      <use x="306.201172" xlink:href="#DejaVuSans-115"/>
     </g>
    </g>
   </g>
   <g id="matplotlib.axis_6">
    <g id="ytick_13">
     <g id="line2d_40">
      <g>
       <use style="stroke:#000000;stroke-width:0.8;" x="725.823529" xlink:href="#m09ca73a6e6" y="242.272023"/>
      </g>
     </g>
     <g id="text_37">
      <!-- 0.0 -->
      <g transform="translate(702.920404 246.071242)scale(0.1 -0.1)">
       <use xlink:href="#DejaVuSans-48"/>
       <use x="63.623047" xlink:href="#DejaVuSans-46"/>
       <use x="95.410156" xlink:href="#DejaVuSans-48"/>
      </g>
     </g>
    </g>
    <g id="ytick_14">
     <g id="line2d_41">
      <g>
       <use style="stroke:#000000;stroke-width:0.8;" x="725.823529" xlink:href="#m09ca73a6e6" y="200.434005"/>
      </g>
     </g>
     <g id="text_38">
      <!-- 0.2 -->
      <g transform="translate(702.920404 204.233224)scale(0.1 -0.1)">
       <use xlink:href="#DejaVuSans-48"/>
       <use x="63.623047" xlink:href="#DejaVuSans-46"/>
       <use x="95.410156" xlink:href="#DejaVuSans-50"/>
      </g>
     </g>
    </g>
    <g id="ytick_15">
     <g id="line2d_42">
      <g>
       <use style="stroke:#000000;stroke-width:0.8;" x="725.823529" xlink:href="#m09ca73a6e6" y="158.595987"/>
      </g>
     </g>
     <g id="text_39">
      <!-- 0.4 -->
      <g transform="translate(702.920404 162.395205)scale(0.1 -0.1)">
       <use xlink:href="#DejaVuSans-48"/>
       <use x="63.623047" xlink:href="#DejaVuSans-46"/>
       <use x="95.410156" xlink:href="#DejaVuSans-52"/>
      </g>
     </g>
    </g>
    <g id="ytick_16">
     <g id="line2d_43">
      <g>
       <use style="stroke:#000000;stroke-width:0.8;" x="725.823529" xlink:href="#m09ca73a6e6" y="116.757968"/>
      </g>
     </g>
     <g id="text_40">
      <!-- 0.6 -->
      <g transform="translate(702.920404 120.557187)scale(0.1 -0.1)">
       <use xlink:href="#DejaVuSans-48"/>
       <use x="63.623047" xlink:href="#DejaVuSans-46"/>
       <use x="95.410156" xlink:href="#DejaVuSans-54"/>
      </g>
     </g>
    </g>
    <g id="ytick_17">
     <g id="line2d_44">
      <g>
       <use style="stroke:#000000;stroke-width:0.8;" x="725.823529" xlink:href="#m09ca73a6e6" y="74.91995"/>
      </g>
     </g>
     <g id="text_41">
      <!-- 0.8 -->
      <g transform="translate(702.920404 78.719169)scale(0.1 -0.1)">
       <use xlink:href="#DejaVuSans-48"/>
       <use x="63.623047" xlink:href="#DejaVuSans-46"/>
       <use x="95.410156" xlink:href="#DejaVuSans-56"/>
      </g>
     </g>
    </g>
    <g id="text_42">
     <!-- Jaccard -->
     <g transform="translate(696.840717 161.52375)rotate(-90)scale(0.1 -0.1)">
      <defs>
       <path d="M 9.8125 72.90625 
L 19.671875 72.90625 
L 19.671875 5.078125 
Q 19.671875 -8.109375 14.671875 -14.0625 
Q 9.671875 -20.015625 -1.421875 -20.015625 
L -5.171875 -20.015625 
L -5.171875 -11.71875 
L -2.09375 -11.71875 
Q 4.4375 -11.71875 7.125 -8.046875 
Q 9.8125 -4.390625 9.8125 5.078125 
z
" id="DejaVuSans-74"/>
      </defs>
      <use xlink:href="#DejaVuSans-74"/>
      <use x="29.492188" xlink:href="#DejaVuSans-97"/>
      <use x="90.771484" xlink:href="#DejaVuSans-99"/>
      <use x="145.751953" xlink:href="#DejaVuSans-99"/>
      <use x="200.732422" xlink:href="#DejaVuSans-97"/>
      <use x="262.011719" xlink:href="#DejaVuSans-114"/>
      <use x="301.375" xlink:href="#DejaVuSans-100"/>
     </g>
    </g>
   </g>
   <g id="line2d_45">
    <path clip-path="url(#p9fbb184539)" d="M 737.013369 93.089027 
L 738.137976 61.67371 
L 739.262583 55.665068 
L 740.38719 54.012841 
L 741.511797 52.66369 
L 742.636404 51.844945 
L 743.761011 51.5393 
L 744.885618 50.438875 
L 746.010225 50.989817 
L 747.134832 50.419099 
L 748.259439 50.120212 
L 749.384046 50.267368 
L 750.508653 49.939017 
L 753.882474 49.826462 
L 756.131688 49.145708 
L 757.256295 49.964416 
L 758.380902 49.562562 
L 759.505509 49.297427 
L 760.630116 51.257545 
L 761.754723 49.824741 
L 762.87933 48.999475 
L 764.003937 49.399708 
L 765.128544 49.53144 
L 766.253151 48.765301 
L 767.377758 48.558083 
L 768.502365 48.4666 
L 769.626972 48.530627 
L 770.751579 48.180456 
L 771.876186 48.516114 
L 773.000793 49.040871 
L 774.1254 48.569168 
L 775.250007 48.472536 
L 776.374614 48.662247 
L 778.623828 48.015857 
L 779.748435 48.213436 
L 780.873042 48.662085 
L 781.997649 48.259333 
L 784.246863 48.099385 
L 785.37147 48.542073 
L 786.496077 48.677484 
L 787.620684 48.400466 
L 789.869898 48.185643 
L 790.994505 48.288884 
L 793.243719 47.986406 
L 794.368326 48.790113 
L 795.492933 48.251615 
L 796.61754 47.87233 
L 797.742147 47.864736 
L 798.866754 48.044647 
L 799.991361 48.403409 
L 801.115968 48.310455 
L 802.240575 48.487298 
L 803.365182 48.259246 
L 804.489789 48.454431 
L 805.614396 47.920509 
L 806.739002 47.685262 
L 807.863609 48.226902 
L 808.988216 47.882404 
L 810.112823 47.987777 
L 811.23743 47.698591 
L 812.362037 48.05355 
L 815.735858 48.097514 
L 816.860465 47.83117 
L 817.985072 47.739762 
L 819.109679 48.163262 
L 820.234286 47.781558 
L 822.4835 47.645798 
L 823.608107 48.154035 
L 824.732714 48.061218 
L 825.857321 47.829662 
L 826.981928 47.90718 
L 828.106535 47.434242 
L 829.231142 47.849599 
L 830.355749 47.572732 
L 831.480356 47.494092 
L 832.604963 47.703017 
L 833.72957 47.145417 
L 834.854177 47.052263 
L 835.978784 47.386761 
L 837.103391 47.024421 
L 838.227998 47.549714 
L 840.477212 47.546473 
L 841.601819 47.675187 
L 843.851033 47.18483 
L 844.97564 47.111203 
L 846.100247 48.085046 
L 847.224854 47.637207 
L 848.349461 47.059757 
L 849.474068 47.540725 
L 851.723282 47.297984 
L 852.847889 47.778328 
L 853.972496 47.271463 
L 855.097103 47.237386 
L 857.346317 46.86724 
L 858.470924 46.950843 
L 860.720138 46.777316 
L 861.844745 46.981354 
L 864.093959 47.077774 
L 865.218566 47.306999 
L 866.343173 47.177511 
L 867.46778 46.895532 
L 868.592387 47.234231 
L 869.716994 46.887602 
L 870.841601 46.748675 
L 871.966208 47.267323 
L 873.090815 46.857988 
L 875.340029 46.897489 
L 876.464636 46.663813 
L 877.589243 46.96487 
L 878.71385 46.900694 
L 879.838457 46.566931 
L 880.963064 47.168334 
L 882.087671 46.911392 
L 883.212278 46.803974 
L 884.336885 46.559637 
L 886.586099 46.500124 
L 887.710706 46.765807 
L 888.835313 46.65915 
L 889.95992 46.209466 
L 893.333741 46.64122 
L 894.458348 46.529513 
L 895.582955 46.906442 
L 897.832169 45.947624 
L 900.081383 46.923087 
L 901.20599 46.502755 
L 902.330597 46.34939 
L 903.455204 46.433255 
L 904.579811 46.993162 
L 905.704418 46.756942 
L 906.829025 46.235065 
L 907.953632 46.258032 
L 909.078239 46.491533 
L 910.202846 46.014256 
L 911.327453 45.700245 
L 912.45206 46.008758 
L 913.576667 46.51268 
L 914.701274 46.276835 
L 915.825881 46.2307 
L 916.950488 45.725145 
L 918.075095 46.255613 
L 919.199702 46.264852 
L 920.324309 45.861328 
L 921.448916 46.508603 
L 925.947344 46.438392 
L 927.071951 46.097984 
L 928.196558 46.14928 
L 929.321165 45.717925 
L 930.445772 45.794483 
L 931.570379 45.985865 
L 933.819593 46.042398 
L 937.193414 45.644659 
L 939.442628 45.627801 
L 940.567235 45.687689 
L 941.691842 45.476381 
L 942.816449 45.485533 
L 943.941056 45.179352 
L 945.065663 45.12641 
L 946.19027 45.331607 
L 948.439484 45.225012 
L 949.564091 46.740321 
L 950.688697 45.6781 
L 951.813304 45.515658 
L 952.937911 45.688711 
L 954.062518 45.058044 
L 955.187125 45.663013 
L 956.311732 45.506232 
L 957.436339 45.116934 
L 958.560946 45.526543 
L 960.81016 45.296321 
L 960.81016 45.296321 
" style="fill:none;stroke:#ff0000;stroke-dasharray:5.55,2.4;stroke-dashoffset:0;stroke-width:1.5;"/>
   </g>
   <g id="line2d_46">
    <path clip-path="url(#p9fbb184539)" d="M 737.013369 235.97637 
L 738.137976 241.317624 
L 739.262583 242.041572 
L 740.38719 242.116364 
L 741.511797 132.557591 
L 742.636404 54.235282 
L 743.761011 50.39602 
L 744.885618 50.769732 
L 746.010225 54.477911 
L 747.134832 51.46667 
L 748.259439 49.98267 
L 749.384046 49.610853 
L 750.508653 46.45697 
L 751.63326 50.099452 
L 752.757867 51.918897 
L 753.882474 48.96172 
L 755.007081 48.31654 
L 756.131688 48.094223 
L 757.256295 65.159972 
L 758.380902 47.744139 
L 759.505509 64.491961 
L 760.630116 49.297278 
L 761.754723 48.168549 
L 762.87933 49.69296 
L 764.003937 48.100694 
L 765.128544 47.015069 
L 766.253151 46.428055 
L 767.377758 46.44783 
L 768.502365 46.582954 
L 769.626972 47.687992 
L 770.751579 47.114644 
L 771.876186 47.561847 
L 773.000793 46.267857 
L 774.1254 46.674748 
L 775.250007 46.619624 
L 776.374614 47.940297 
L 777.499221 46.824348 
L 778.623828 47.182212 
L 779.748435 46.93093 
L 780.873042 47.088609 
L 781.997649 47.619153 
L 783.122256 46.754161 
L 784.246863 48.644005 
L 785.37147 54.242227 
L 786.496077 57.502207 
L 787.620684 46.728264 
L 788.745291 48.086529 
L 789.869898 45.336134 
L 790.994505 47.606821 
L 792.119112 50.208166 
L 793.243719 47.014109 
L 794.368326 46.973785 
L 795.492933 47.482845 
L 796.61754 45.843572 
L 797.742147 46.810358 
L 798.866754 51.028432 
L 801.115968 45.690531 
L 802.240575 46.038209 
L 803.365182 49.408312 
L 804.489789 46.844248 
L 805.614396 46.792428 
L 806.739002 47.67389 
L 807.863609 63.723428 
L 808.988216 47.453768 
L 810.112823 45.717875 
L 811.23743 46.267969 
L 812.362037 45.119939 
L 813.486644 46.946354 
L 814.611251 83.72694 
L 815.735858 45.214389 
L 816.860465 47.656434 
L 817.985072 46.335213 
L 819.109679 46.41626 
L 820.234286 46.006763 
L 821.358893 46.686095 
L 822.4835 64.416625 
L 824.732714 47.622956 
L 825.857321 48.881509 
L 826.981928 45.605969 
L 828.106535 46.131163 
L 829.231142 44.878545 
L 830.355749 50.436755 
L 831.480356 46.87916 
L 832.604963 46.615223 
L 833.72957 45.923297 
L 834.854177 48.222538 
L 835.978784 46.4899 
L 837.103391 46.645422 
L 838.227998 46.149043 
L 839.352605 47.380577 
L 840.477212 47.938875 
L 841.601819 46.070528 
L 842.726426 48.12613 
L 843.851033 45.898921 
L 844.97564 45.455908 
L 846.100247 47.851519 
L 847.224854 46.893811 
L 848.349461 60.09041 
L 849.474068 46.776618 
L 850.598675 44.65629 
L 851.723282 46.076675 
L 852.847889 46.258917 
L 853.972496 45.992299 
L 855.097103 47.53868 
L 856.22171 45.809508 
L 857.346317 46.006289 
L 858.470924 46.747703 
L 859.595531 48.139472 
L 860.720138 44.983544 
L 861.844745 47.832268 
L 862.969352 48.07825 
L 864.093959 45.125238 
L 865.218566 47.329343 
L 866.343173 44.443636 
L 867.46778 47.403756 
L 868.592387 45.825256 
L 869.716994 46.00296 
L 870.841601 48.643481 
L 871.966208 46.368667 
L 873.090815 46.515149 
L 874.215422 46.225065 
L 875.340029 45.813136 
L 876.464636 48.908391 
L 877.589243 45.147657 
L 878.71385 45.940915 
L 879.838457 48.162252 
L 880.963064 45.011872 
L 883.212278 47.715785 
L 884.336885 46.023608 
L 885.461492 47.462633 
L 886.586099 46.677678 
L 887.710706 47.797106 
L 888.835313 46.250339 
L 891.084527 46.410138 
L 892.209134 46.063682 
L 893.333741 48.972767 
L 894.458348 46.458491 
L 896.707562 46.405412 
L 897.832169 47.448718 
L 898.956776 45.739384 
L 900.081383 46.063021 
L 901.20599 47.719937 
L 902.330597 46.213743 
L 903.455204 49.570517 
L 904.579811 46.752615 
L 905.704418 46.460474 
L 906.829025 46.344315 
L 907.953632 47.415701 
L 909.078239 47.208346 
L 910.202846 45.039565 
L 911.327453 47.536173 
L 912.45206 45.568912 
L 913.576667 48.567522 
L 914.701274 48.545876 
L 915.825881 45.23707 
L 916.950488 48.129758 
L 918.075095 45.816166 
L 919.199702 45.85129 
L 920.324309 45.611592 
L 921.448916 47.899723 
L 922.573523 48.30144 
L 923.69813 46.914945 
L 924.822737 45.98382 
L 925.947344 46.221424 
L 927.071951 45.881091 
L 928.196558 48.201902 
L 929.321165 46.678826 
L 930.445772 45.353739 
L 931.570379 47.897816 
L 932.694986 45.396183 
L 933.819593 48.36503 
L 934.9442 46.975668 
L 936.068807 45.906065 
L 937.193414 47.497296 
L 938.318021 45.698673 
L 939.442628 47.43701 
L 940.567235 46.569512 
L 941.691842 45.942861 
L 943.941056 48.448571 
L 945.065663 45.136098 
L 946.19027 46.816281 
L 947.314877 46.890494 
L 948.439484 47.221326 
L 949.564091 46.841929 
L 950.688697 45.118704 
L 951.813304 47.694451 
L 954.062518 45.60239 
L 955.187125 48.169708 
L 956.311732 46.620834 
L 957.436339 45.784533 
L 958.560946 46.185664 
L 959.685553 47.378008 
L 960.81016 46.274428 
L 960.81016 46.274428 
" style="fill:none;stroke:#0000ff;stroke-linecap:square;stroke-width:1.5;"/>
   </g>
   <g id="patch_15">
    <path d="M 725.823529 252 
L 725.823529 34.56 
" style="fill:none;stroke:#000000;stroke-linecap:square;stroke-linejoin:miter;stroke-width:0.8;"/>
   </g>
   <g id="patch_16">
    <path d="M 972 252 
L 972 34.56 
" style="fill:none;stroke:#000000;stroke-linecap:square;stroke-linejoin:miter;stroke-width:0.8;"/>
   </g>
   <g id="patch_17">
    <path d="M 725.823529 252 
L 972 252 
" style="fill:none;stroke:#000000;stroke-linecap:square;stroke-linejoin:miter;stroke-width:0.8;"/>
   </g>
   <g id="patch_18">
    <path d="M 725.823529 34.56 
L 972 34.56 
" style="fill:none;stroke:#000000;stroke-linecap:square;stroke-linejoin:miter;stroke-width:0.8;"/>
   </g>
   <g id="legend_3">
    <g id="patch_19">
     <path d="M 842.45 247 
L 965 247 
Q 967 247 967 245 
L 967 216.365625 
Q 967 214.365625 965 214.365625 
L 842.45 214.365625 
Q 840.45 214.365625 840.45 216.365625 
L 840.45 245 
Q 840.45 247 842.45 247 
z
" style="fill:#ffffff;opacity:0.8;stroke:#cccccc;stroke-linejoin:miter;"/>
    </g>
    <g id="line2d_47">
     <path d="M 844.45 222.464063 
L 864.45 222.464063 
" style="fill:none;stroke:#ff0000;stroke-dasharray:5.55,2.4;stroke-dashoffset:0;stroke-width:1.5;"/>
    </g>
    <g id="line2d_48"/>
    <g id="text_43">
     <!-- jaccard -->
     <g transform="translate(872.45 225.964063)scale(0.1 -0.1)">
      <defs>
       <path d="M 9.421875 54.6875 
L 18.40625 54.6875 
L 18.40625 -0.984375 
Q 18.40625 -11.421875 14.421875 -16.109375 
Q 10.453125 -20.796875 1.609375 -20.796875 
L -1.8125 -20.796875 
L -1.8125 -13.1875 
L 0.59375 -13.1875 
Q 5.71875 -13.1875 7.5625 -10.8125 
Q 9.421875 -8.453125 9.421875 -0.984375 
z
M 9.421875 75.984375 
L 18.40625 75.984375 
L 18.40625 64.59375 
L 9.421875 64.59375 
z
" id="DejaVuSans-106"/>
      </defs>
      <use xlink:href="#DejaVuSans-106"/>
      <use x="27.783203" xlink:href="#DejaVuSans-97"/>
      <use x="89.0625" xlink:href="#DejaVuSans-99"/>
      <use x="144.042969" xlink:href="#DejaVuSans-99"/>
      <use x="199.023438" xlink:href="#DejaVuSans-97"/>
      <use x="260.302734" xlink:href="#DejaVuSans-114"/>
      <use x="299.666016" xlink:href="#DejaVuSans-100"/>
     </g>
    </g>
    <g id="line2d_49">
     <path d="M 844.45 237.142188 
L 864.45 237.142188 
" style="fill:none;stroke:#0000ff;stroke-linecap:square;stroke-width:1.5;"/>
    </g>
    <g id="line2d_50"/>
    <g id="text_44">
     <!-- jaccard_validation -->
     <g transform="translate(872.45 240.642188)scale(0.1 -0.1)">
      <use xlink:href="#DejaVuSans-106"/>
      <use x="27.783203" xlink:href="#DejaVuSans-97"/>
      <use x="89.0625" xlink:href="#DejaVuSans-99"/>
      <use x="144.042969" xlink:href="#DejaVuSans-99"/>
      <use x="199.023438" xlink:href="#DejaVuSans-97"/>
      <use x="260.302734" xlink:href="#DejaVuSans-114"/>
      <use x="299.666016" xlink:href="#DejaVuSans-100"/>
      <use x="363.142578" xlink:href="#DejaVuSans-95"/>
      <use x="413.142578" xlink:href="#DejaVuSans-118"/>
      <use x="472.322266" xlink:href="#DejaVuSans-97"/>
      <use x="533.601562" xlink:href="#DejaVuSans-108"/>
      <use x="561.384766" xlink:href="#DejaVuSans-105"/>
      <use x="589.167969" xlink:href="#DejaVuSans-100"/>
      <use x="652.644531" xlink:href="#DejaVuSans-97"/>
      <use x="713.923828" xlink:href="#DejaVuSans-116"/>
      <use x="753.132812" xlink:href="#DejaVuSans-105"/>
      <use x="780.916016" xlink:href="#DejaVuSans-111"/>
      <use x="842.097656" xlink:href="#DejaVuSans-110"/>
     </g>
    </g>
   </g>
  </g>
 </g>
 <defs>
  <clipPath id="pcb51fd3cd4">
   <rect height="217.44" width="246.176471" x="135" y="34.56"/>
  </clipPath>
  <clipPath id="p0d24a0abea">
   <rect height="217.44" width="246.176471" x="430.411765" y="34.56"/>
  </clipPath>
  <clipPath id="p9fbb184539">
   <rect height="217.44" width="246.176471" x="725.823529" y="34.56"/>
  </clipPath>
 </defs>
</svg>
